…
Today we will use a dataset from a bike-sharing program in Washington D.C.
The prediction task is to learn how many bikes will be rented on a particular
day based on weather and time variables.


{% highlight r %}
bikes <- read_csv("https://statsmaths.github.io/ml_data/bikes.csv")
bikes
{% endhighlight %}



{% highlight text %}
## # A tibble: 731 x 10
##    obs_id train_id count season  year workingday weather  temp humidity
##    <chr>  <chr>    <dbl> <chr>  <dbl>      <dbl> <chr>   <dbl>    <dbl>
##  1 id_00… train      985 Winter     0          0 Rain     6.72    0.806
##  2 id_00… train      801 Winter     0          0 Rain     7.99    0.696
##  3 id_00… train     1349 Winter     0          1 Dry     -3.04    0.437
##  4 id_00… test        NA Winter     0          1 Dry     -2.8     0.590
##  5 id_00… train     1600 Winter     0          1 Dry     -1.02    0.437
##  6 id_00… test        NA Winter     0          1 Dry     -2.51    0.518
##  7 id_00… test        NA Winter     0          1 Rain    -3.03    0.499
##  8 id_00… valid      959 Winter     0          0 Rain    -5.11    0.536
##  9 id_00… valid      822 Winter     0          0 Dry     -6.87    0.434
## 10 id_00… train     1321 Winter     0          1 Dry     -6.05    0.483
## # … with 721 more rows, and 1 more variable: windspeed <dbl>
…
