Class 08: Text Prediction
…
Load the package and initalize the tokenizer backend; more on back-ends in a later class.

library(cleanNLP)
cnlp_init_tokenizers()

Run the function cnlp_annotate, followed by cnlp_get_token, to extract the individual words from the reviews (this may take a minute or two):

anno <- cnlp_get_token(cnlp_annotate(amazon, text_var = "text"))

The output is a data frame, Rs object type for storing tabular data, with one row per word. There are a lot of other columns that are not filled in because we chose a simplistic NLP backend.

anno

## # A tibble: 722,717 x 8
##    id      sid   tid word      lemma upos  pos     cid
##    <chr> <int> <int> <chr>     <chr> <chr> <chr> <int>
##  1 doc1      1     1 At        <NA>  <NA>  <NA>      1
##  2 doc1      1     2 some      <NA>  <NA>  <NA>      4
##  3 doc1      1     3 point     <NA>  <NA>  <NA>      9
##  4 doc1      1     4 I         <NA>  <NA>  <NA>     15
##  5 doc1      1     5 would     <NA>  <NA>  <NA>     17
##  6 doc1      1     6 like      <NA>  <NA>  <NA>     23
##  7 doc1      1     7 to        <NA>  <NA>  <NA>     28
##  8 doc1      1     8 try       <NA>  <NA>  <NA>     31
##  9 doc1      1     9 TeffBob's <NA>  <NA>  <NA>     35
## 10 doc1      1    10 Red       <NA>  <NA>  <NA>     45
## #  with 722,707 more rows
…
