Class 13: Trees and Forests
…
Class 13: Trees and Forests

Decision Trees

Today we will start by looking at a new dataset of housing prices in Ames, Iowa. Unlike our other housing dataset though, the samples here are of individual houses.

ames <- read_csv("https://statsmaths.github.com/ml_data/ames.csv")
ames

## # A tibble: 2,678 x 76
##    obs_id train_id saleprice ms_subclass ms_zoning lot_area street
##    <chr>  <chr>        <dbl> <chr>       <chr>        <dbl> <chr> 
##  1 id_00 train       215000 020         RL           31770 Pave  
##  2 id_00 train       105000 020         RH           11622 Pave  
##  3 id_00 train       172000 020         RL           14267 Pave  
##  4 id_00 test            NA 020         RL           11160 Pave  
##  5 id_00 train       189900 060         RL           13830 Pave  
##  6 id_00 test            NA 060         RL            9978 Pave  
##  7 id_00 test            NA 120         RL            4920 Pave  
##  8 id_00 valid       191500 120         RL            5005 Pave  
##  9 id_00 valid       236500 120         RL            5389 Pave  
## 10 id_00 train       189000 060         RL            7500 Pave  
## #  with 2,668 more rows, and 69 more variables: lot_shape <chr>,
## #   land_contour <chr>, utilities <chr>, lot_config <chr>,
## #   land_slope <chr>, neighborhood <chr>, condition_1 <chr>,
## #   condition_2 <chr>, bldg_type <chr>, house_style <chr>,
## #   overall_qual <dbl>, overall_cond <dbl>, year_built <dbl>,
## #   `year_remod/add` <dbl>, roof_style <chr>, roof_matl <chr>,
## #   exterior_1st <chr>, exterior_2nd <chr>, mas_vnr_type <chr>,
## #   mas_vnr_area <dbl>, exter_qual <chr>, exter_cond <chr>,
## #   foundation <chr>, bsmt_qual <chr>, bsmt_cond <chr>,
…
